<svg id="Capa_1" data-name="Capa 1" xmlns="http://www.w3.org/2000/svg" viewBox="0 0 197.4 44">
  <defs>
    <style>
      .cls-1 {
        fill: #b1132f;
      }

      .cls-2, .cls-3 {
        fill: #293f89;
      }

      .cls-3 {
        fill-rule: evenodd;
      }
    </style>
  </defs>
  <title>ciq</title>
  <rect class="cls-1" x="46.6" y="36.4" width="1.1" height="4.83"/>
  <path class="cls-1" d="M1571.5-697.6c0-.8-.4-1.6-1.1-1.6s-1.2.8-1.2,1.7.4,1.6,1.2,1.6,1.1-.7,1.1-1.7m.9,3.3-1.9-.7h-.3a2.1,2.1,0,0,1-2.1-2.4,2.3,2.3,0,0,1,2.3-2.5,2.2,2.2,0,0,1,2.3,2.4,2.4,2.4,0,0,1-1.1,2.2h0l1.1.3Z" transform="translate(-1519.6 736.4)"/>
  <path class="cls-1" d="M1574.5-700v2.8c0,.8.3,1.3.9,1.3s.9-.4.9-1.3V-700h1.1v2.7a1.9,1.9,0,0,1-2.1,2.2c-1.2,0-1.9-.6-1.9-2.2V-700Z" transform="translate(-1519.6 736.4)"/>
  <rect class="cls-1" x="58.7" y="36.4" width="1.1" height="4.83"/>
  <polygon class="cls-1" points="61.7 37.3 60.4 37.3 60.4 36.4 64.1 36.4 64.1 37.3 62.8 37.3 62.8 41.3 61.7 41.3 61.7 37.3"/>
  <path class="cls-1" d="M1585-697.5c0,.9.5,1.6,1.2,1.6s1.1-.7,1.1-1.7-.4-1.6-1.1-1.6-1.2.7-1.2,1.7m3.5-.1a2.3,2.3,0,0,1-2.4,2.5,2.2,2.2,0,0,1-2.2-2.4,2.3,2.3,0,0,1,2.3-2.5,2.2,2.2,0,0,1,2.3,2.4" transform="translate(-1519.6 736.4)"/>
  <path class="cls-1" d="M1589.3-696.3a2.1,2.1,0,0,0,1.2.3c.5,0,.7-.2.7-.5s-.2-.5-.8-.7a1.5,1.5,0,0,1-1.3-1.4c0-.8.7-1.4,1.8-1.4l1.3.2-.3.9a2.2,2.2,0,0,0-1-.2c-.5,0-.7.2-.7.4s.3.5.9.7,1.3.8,1.3,1.4-.7,1.5-2,1.5a2.9,2.9,0,0,1-1.4-.3Z" transform="translate(-1519.6 736.4)"/>
  <rect class="cls-1" x="75.2" y="35.9" width="0.3" height="7.17"/>
  <path class="cls-1" d="M1598.2-697.5h.6c.9,0,1.4-.4,1.4-1.2s-.5-1.1-1.3-1.1h-.7Zm-.3-2.4h1a1.7,1.7,0,0,1,1.3.4,1.5,1.5,0,0,1,.4,1,1.3,1.3,0,0,1-.4.9,1.7,1.7,0,0,1-1.4.6h-.6v2.1h-.3Z" transform="translate(-1519.6 736.4)"/>
  <polygon class="cls-1" points="84.1 38.9 82.2 38.9 82.2 41 84.3 41 84.3 41.3 81.8 41.3 81.8 36.4 84.2 36.4 84.2 36.7 82.2 36.7 82.2 38.6 84.1 38.6 84.1 38.9"/>
  <path class="cls-1" d="M1605.2-697.6h.7c.8,0,1.3-.4,1.3-1.1s-.6-1-1.4-1h-.6Zm-.4-2.3h1.1a1.7,1.7,0,0,1,1.3.4,1.2,1.2,0,0,1,.3.9,1.3,1.3,0,0,1-.9,1.2h0a1.5,1.5,0,0,1,.7,1.1,11.1,11.1,0,0,0,.4,1.3h-.4a5,5,0,0,1-.3-1.2c-.2-.7-.5-1-1.1-1h-.7v2.2h-.4Z" transform="translate(-1519.6 736.4)"/>
  <path class="cls-1" d="M1611.1-701l-1,.8h-.2l.7-.8Zm-2.3,1v3c0,1.2.5,1.7,1.3,1.7s1.3-.6,1.3-1.7v-3h.4v2.9c0,1.5-.8,2-1.8,2s-1.6-.4-1.6-1.9v-3Z" transform="translate(-1519.6 736.4)"/>
  <rect class="cls-1" x="39.8" y="33" width="1.4" height="10.98"/>
  <path class="cls-2" d="M1566.8-712.2a8.2,8.2,0,0,0,3.5.8c1.4,0,2.2-.6,2.2-1.5s-.7-1.3-2.4-1.9-3.8-2.1-3.8-4.1,2-4.2,5.3-4.2a8,8,0,0,1,3.5.7l-.7,2.5a7.5,7.5,0,0,0-2.9-.6c-1.3,0-2,.6-2,1.3s.8,1.3,2.6,2,3.6,2.1,3.6,4.1-1.8,4.3-5.6,4.3a9.1,9.1,0,0,1-3.9-.8Z" transform="translate(-1519.6 736.4)"/>
  <path class="cls-2" d="M1583.1-713.8c-1.7,0-2.9.4-2.9,1.6a1.1,1.1,0,0,0,1.2,1.2,1.7,1.7,0,0,0,1.6-1.1,1.3,1.3,0,0,0,.1-.6Zm.4,4.8-.2-1h-.1a3.6,3.6,0,0,1-2.9,1.2,3.1,3.1,0,0,1-3.2-3.1c0-2.6,2.3-3.8,5.9-3.8v-.2c0-.5-.3-1.3-1.8-1.3a5.5,5.5,0,0,0-2.8.8l-.6-2a8.2,8.2,0,0,1,3.9-.9c3.4,0,4.4,2,4.4,4.3v3.5a15.7,15.7,0,0,0,.2,2.5Z" transform="translate(-1519.6 736.4)"/>
  <path class="cls-2" d="M1588.5-715.9a31.1,31.1,0,0,0-.1-3.2h2.7l.2,1.4h0a3.9,3.9,0,0,1,3.1-1.6c2.1,0,3.6,1.4,3.6,4.3v6h-3.1v-5.6c0-1.3-.4-2.2-1.6-2.2a1.9,1.9,0,0,0-1.6,1.2c0,.2-.1.5-.1.8v5.8h-3.1Z" transform="translate(-1519.6 736.4)"/>
  <path class="cls-2" d="M1607.3-722.9h3.1v8.8c0,3.9-1.9,5.3-4.9,5.3a8.5,8.5,0,0,1-2.3-.3l.4-2.5,1.6.2c1.3,0,2.1-.6,2.1-2.7Z" transform="translate(-1519.6 736.4)"/>
  <path class="cls-2" d="M1622.3-712.2c0,1.3.1,2.3.1,3.2h-2.7l-.2-1.4h0a3.7,3.7,0,0,1-3.2,1.6c-2,0-3.5-1.3-3.5-4.4v-5.9h3.1v5.4c0,1.5.5,2.4,1.6,2.4a1.7,1.7,0,0,0,1.6-1.1c0-.2.1-.4.1-.7v-6h3.1Z" transform="translate(-1519.6 736.4)"/>
  <path class="cls-2" d="M1630.1-713.8c-1.7,0-3,.4-3,1.6a1.2,1.2,0,0,0,1.3,1.2,1.7,1.7,0,0,0,1.6-1.1c0-.2.1-.4.1-.6Zm.3,4.8-.2-1h0a3.7,3.7,0,0,1-2.9,1.2,3.1,3.1,0,0,1-3.2-3.1c0-2.6,2.3-3.8,5.9-3.8v-.2c0-.5-.3-1.3-1.9-1.3a5.4,5.4,0,0,0-2.7.8l-.6-2a8.2,8.2,0,0,1,3.9-.9c3.3,0,4.4,2,4.4,4.3v3.5a17.8,17.8,0,0,0,.1,2.5Z" transform="translate(-1519.6 736.4)"/>
  <path class="cls-2" d="M1635.5-715.9c0-1.2-.1-2.3-.1-3.2h2.7v1.4h.1a3.7,3.7,0,0,1,3.1-1.6c2.1,0,3.6,1.4,3.6,4.3v6h-3.1v-5.6c0-1.3-.5-2.2-1.6-2.2a1.6,1.6,0,0,0-1.6,1.2,1.9,1.9,0,0,0-.1.8v5.8h-3.1Z" transform="translate(-1519.6 736.4)"/>
  <path class="cls-2" d="M1658.1-714.8a1.3,1.3,0,0,0-.1-.6,1.8,1.8,0,0,0-1.8-1.5c-1.4,0-2.1,1.3-2.1,2.9s.8,2.7,2.1,2.7a1.8,1.8,0,0,0,1.8-1.5,1.5,1.5,0,0,0,.1-.7Zm3.1-8.8V-712a26.3,26.3,0,0,0,.1,3h-2.8v-1.5h-.1a3.4,3.4,0,0,1-3.1,1.7c-2.4,0-4.3-2-4.3-5.1s2.1-5.4,4.5-5.4a2.9,2.9,0,0,1,2.6,1.1h.1v-5.4Z" transform="translate(-1519.6 736.4)"/>
  <path class="cls-2" d="M1669.7-715.2a1.8,1.8,0,0,0-1.8-2,2,2,0,0,0-1.9,2ZM1666-713c.1,1.3,1.4,1.9,2.9,1.9a11,11,0,0,0,2.7-.4l.4,2.1a9.7,9.7,0,0,1-3.6.6c-3.4,0-5.4-2-5.4-5.1s1.6-5.4,5.1-5.4,4.5,2.5,4.5,5c0,.6-.1,1-.1,1.3Z" transform="translate(-1519.6 736.4)"/>
  <path class="cls-2" d="M1681.7-711.4h1.1c2.8,0,4.6-1.6,4.6-4.9s-1.6-4.4-4.3-4.4a3.7,3.7,0,0,0-1.4.2Zm-3.2-11.3a27.2,27.2,0,0,1,4.3-.3c2.6,0,4.3.5,5.6,1.5a6.1,6.1,0,0,1,2.4,5.2,7,7,0,0,1-2.3,5.6c-1.5,1.3-3.7,1.8-6.4,1.8l-3.6-.2Z" transform="translate(-1519.6 736.4)"/>
  <path class="cls-2" d="M1692.7-719.1h3.1V-709h-3.1Zm3.2-2.8a1.6,1.6,0,0,1-1.7,1.6,1.6,1.6,0,0,1-1.6-1.6,1.5,1.5,0,0,1,1.7-1.5,1.4,1.4,0,0,1,1.6,1.5" transform="translate(-1519.6 736.4)"/>
  <path class="cls-2" d="M1700.9-714c0,1.7.7,3,2,3s2-1.2,2-3-.5-3.1-2-3.1-2,1.6-2,3.1m7.3-.1a5,5,0,0,1-5.3,5.3,4.9,4.9,0,0,1-5.2-5.2,5,5,0,0,1,5.3-5.3,4.9,4.9,0,0,1,5.2,5.2" transform="translate(-1519.6 736.4)"/>
  <path class="cls-2" d="M1710-711.7a6.2,6.2,0,0,0,2.7.7c.9,0,1.3-.3,1.3-.8s-.3-.8-1.5-1.2-2.9-1.8-2.8-3,1.6-3.3,4.1-3.3a6.9,6.9,0,0,1,2.8.6l-.6,2.1a5.4,5.4,0,0,0-2.1-.5c-.8,0-1.2.3-1.2.8s.4.7,1.6,1.1,2.7,1.7,2.7,3.1-1.5,3.3-4.3,3.3a7.4,7.4,0,0,1-3.3-.7Z" transform="translate(-1519.6 736.4)"/>
  <path class="cls-2" d="M1571.2-728.7a5.2,5.2,0,0,1-1.7.3,3.1,3.1,0,0,1-3.2-3.3,3.2,3.2,0,0,1,3.4-3.3,4,4,0,0,1,1.5.2l-.2.7-1.3-.2a2.3,2.3,0,0,0-2.5,2.6,2.3,2.3,0,0,0,2.5,2.6,2.5,2.5,0,0,0,1.3-.3Z" transform="translate(-1519.6 736.4)"/>
  <polygon class="cls-2" points="52.6 1.5 53.4 1.5 53.4 7.2 56.2 7.2 56.2 7.8 52.6 7.8 52.6 1.5"/>
  <path class="cls-2" d="M1577.5-728.5h-.8v-6.4h.8Zm1-7.9-1.2,1.1h-.7l.9-1.1Z" transform="translate(-1519.6 736.4)"/>
  <path class="cls-2" d="M1579-728.5v-6.4h.9l2,3.2a15.7,15.7,0,0,1,1.2,2.1h0a23.5,23.5,0,0,1-.1-2.7v-2.6h.8v6.4h-.9l-2-3.3a22.5,22.5,0,0,1-1.2-2.1h0v5.4Z" transform="translate(-1519.6 736.4)"/>
  <rect class="cls-2" x="65.6" y="1.5" width="0.8" height="6.4"/>
  <path class="cls-2" d="M1592-728.7a6.5,6.5,0,0,1-1.7.3,3.1,3.1,0,0,1-3.2-3.3,3.1,3.1,0,0,1,3.3-3.3,5.1,5.1,0,0,1,1.6.2l-.2.7-1.3-.2a2.3,2.3,0,0,0-2.5,2.6,2.3,2.3,0,0,0,2.4,2.6,3.2,3.2,0,0,0,1.4-.3Z" transform="translate(-1519.6 736.4)"/>
  <path class="cls-2" d="M1596.2-731.2l-.7-1.8c-.1-.5-.2-.8-.3-1.2h0l-.3,1.2-.7,1.8Zm-2.1.6-.7,2.1h-.9l2.2-6.4h1l2.2,6.4h-.9l-.7-2.1Z" transform="translate(-1519.6 736.4)"/>
  <rect class="cls-2" x="39.8" y="0.1" width="1.4" height="32.98"/>
  <path class="cls-3" d="M1538.1-701.6h-.4a.9.9,0,0,0-.9-1,.9.9,0,0,0-.9.6,7,7,0,0,1-2.4-1.3.6.6,0,0,0,.1-.4.9.9,0,0,0-.9-1h-.3a2.1,2.1,0,0,1-.4-.6.9.9,0,0,0,.3-.7.9.9,0,0,0-.9-1,5.7,5.7,0,0,1-.1-1.3,4.9,4.9,0,0,1,.1-1.2.9.9,0,0,0,.9-.9,1.1,1.1,0,0,0-.3-.8l.3-.5h.4a1,1,0,0,0,.9-1,.7.7,0,0,0-.1-.5,5.3,5.3,0,0,1,2.4-1.4.9.9,0,0,0,.9.7.9.9,0,0,0,.9-.9v-.2h.9c0,.1-.1.1-.1.2a.9.9,0,0,0,1,.9.9.9,0,0,0,.9-.7,7.2,7.2,0,0,1,2.4,1.4c-.2.1-.2.3-.2.5a1,1,0,0,0,1,1h.3l.4.6a.9.9,0,0,0-.3.7.9.9,0,0,0,.8.9,4.9,4.9,0,0,1,.1,1.2,5.7,5.7,0,0,1-.1,1.3,1,1,0,0,0-.8,1,1.4,1.4,0,0,0,.2.6,2.1,2.1,0,0,1-.4.6h-.2a.9.9,0,0,0-1,1,.6.6,0,0,0,.1.4,7.6,7.6,0,0,1-2.3,1.3,1,1,0,0,0-.9-.6,1.1,1.1,0,0,0-1,1h-.4m3.8-16.5a.6.6,0,0,1,.8-.4,2.7,2.7,0,0,0,2,.9,2.1,2.1,0,0,0,2-1.9,2.3,2.3,0,0,0-1.7-2.4,6.2,6.2,0,0,0-5.2.3v-2.3h3.5v-3.4h-3.5v-3.5h-3.4v3.5h-3.6v3.4h3.6v2.2a6.2,6.2,0,0,0-5-.2,2.3,2.3,0,0,0-1.7,2.4,2.1,2.1,0,0,0,2,1.9,2.7,2.7,0,0,0,2-.9.7.7,0,0,1,.8.4,10.6,10.6,0,0,0-6.7,9.8,10.5,10.5,0,0,0,10.4,10.5,10.5,10.5,0,0,0,10.4-10.5,10.5,10.5,0,0,0-6.7-9.8" transform="translate(-1519.6 736.4)"/>
  <path class="cls-3" d="M1535.4-711.5a1,1,0,0,0,.9-1,.9.9,0,0,0-.9-1,.9.9,0,0,0-1,1,1,1,0,0,0,1,1" transform="translate(-1519.6 736.4)"/>
  <path class="cls-3" d="M1538.2-711.5a1,1,0,0,0,.9-1,.9.9,0,0,0-.9-1,1,1,0,0,0-1.1,1,1,1,0,0,0,1.1,1" transform="translate(-1519.6 736.4)"/>
  <path class="cls-3" d="M1540.9-711.5a1,1,0,0,0,.9-1,.9.9,0,0,0-.9-1,.9.9,0,0,0-1,1,1,1,0,0,0,1,1" transform="translate(-1519.6 736.4)"/>
  <path class="cls-3" d="M1534.1-709.4a.9.9,0,0,0,.9-.9.9.9,0,0,0-.9-1,.9.9,0,0,0-1,1,.9.9,0,0,0,1,.9" transform="translate(-1519.6 736.4)"/>
  <path class="cls-3" d="M1535.8-710.3a.9.9,0,0,0,1,.9.9.9,0,0,0,.9-.9.9.9,0,0,0-.9-1,.9.9,0,0,0-1,1" transform="translate(-1519.6 736.4)"/>
  <path class="cls-3" d="M1538.5-710.3a.9.9,0,0,0,1,.9,1,1,0,0,0,1-.9,1,1,0,0,0-1-1,.9.9,0,0,0-1,1" transform="translate(-1519.6 736.4)"/>
  <path class="cls-3" d="M1541.2-710.3a1,1,0,0,0,1.1.9.9.9,0,0,0,.9-.9.9.9,0,0,0-.9-1,1,1,0,0,0-1.1,1" transform="translate(-1519.6 736.4)"/>
  <path class="cls-3" d="M1533.6-708a.9.9,0,0,0-.9-1,.9.9,0,0,0-1,1,.9.9,0,0,0,1,.9.9.9,0,0,0,.9-.9" transform="translate(-1519.6 736.4)"/>
  <path class="cls-3" d="M1535.4-709a.9.9,0,0,0-1,1,.9.9,0,0,0,1,.9.9.9,0,0,0,.9-.9.9.9,0,0,0-.9-1" transform="translate(-1519.6 736.4)"/>
  <path class="cls-3" d="M1538.2-709a1,1,0,0,0-1.1,1c0,.5.4.9,1.1.9a.9.9,0,0,0,.9-.9.9.9,0,0,0-.9-1" transform="translate(-1519.6 736.4)"/>
  <path class="cls-3" d="M1541.8-708a.9.9,0,0,0-.9-1,.9.9,0,0,0-1,1,.9.9,0,0,0,1,.9.9.9,0,0,0,.9-.9" transform="translate(-1519.6 736.4)"/>
  <path class="cls-3" d="M1542.6-708a.9.9,0,0,0,1,.9.9.9,0,0,0,.9-.9.9.9,0,0,0-.9-1,.9.9,0,0,0-1,1" transform="translate(-1519.6 736.4)"/>
  <path class="cls-3" d="M1535-705.9a.9.9,0,0,0-.9-1,.9.9,0,0,0-1,1,.9.9,0,0,0,1,.9.9.9,0,0,0,.9-.9" transform="translate(-1519.6 736.4)"/>
  <path class="cls-3" d="M1537.7-705.9a.9.9,0,0,0-.9-1,.9.9,0,0,0-1,1,.9.9,0,0,0,1,.9.9.9,0,0,0,.9-.9" transform="translate(-1519.6 736.4)"/>
  <path class="cls-3" d="M1540.5-705.9a1,1,0,0,0-1-1,.9.9,0,0,0-1,1,.9.9,0,0,0,1,.9,1,1,0,0,0,1-.9" transform="translate(-1519.6 736.4)"/>
  <path class="cls-3" d="M1542.3-706.9a1,1,0,0,0-1.1,1,1,1,0,0,0,1.1.9.9.9,0,0,0,.9-.9.9.9,0,0,0-.9-1" transform="translate(-1519.6 736.4)"/>
  <path class="cls-3" d="M1535.4-704.7a.9.9,0,0,0-1,1,.9.9,0,0,0,1,.9.9.9,0,0,0,.9-.9.9.9,0,0,0-.9-1" transform="translate(-1519.6 736.4)"/>
  <path class="cls-3" d="M1539.1-703.7a.9.9,0,0,0-.9-1,1,1,0,0,0-1.1,1c0,.5.4.9,1.1.9a.9.9,0,0,0,.9-.9" transform="translate(-1519.6 736.4)"/>
  <path class="cls-3" d="M1540.9-704.7a.9.9,0,0,0-1,1,.9.9,0,0,0,1,.9.9.9,0,0,0,.9-.9.9.9,0,0,0-.9-1" transform="translate(-1519.6 736.4)"/>
  <path class="cls-3" d="M1551.5-704a3.1,3.1,0,0,0-2.3,2.8,3.7,3.7,0,0,1-1.2.7,2.4,2.4,0,0,1-1.3.2,12.4,12.4,0,0,0,2.5-3.9,5.9,5.9,0,0,1,1.7-1.3,7,7,0,0,0,4.1-2.7c.7-1.4.9-3.4,1.7-4.7-2.5.4-5.3,2.2-6.1,6.7a6.8,6.8,0,0,1-1.2,1.2,12,12,0,0,0,.5-3.3,16.4,16.4,0,0,0-.2-2.2c1.1,0,2.1-.6,2.8-2.2s1.5-4.3,2.2-4.8c-3.9.3-6.7,2.1-5.5,6.9h0a17.9,17.9,0,0,1,.2,2.3,10.3,10.3,0,0,1-.6,3.5h0a12.3,12.3,0,0,1-3.2,4.9,11.2,11.2,0,0,0,2.6,0c1-.2,3.6-.7,4.6-1.4s1.9-2.6,3.2-4.1c-1.9.8-3.1.7-4.5,1.3" transform="translate(-1519.6 736.4)"/>
  <path class="cls-3" d="M1524.9-704a3.4,3.4,0,0,1,2.3,2.8,3.7,3.7,0,0,0,1.2.7,2.4,2.4,0,0,0,1.3.2,12.4,12.4,0,0,1-2.5-3.9,7.6,7.6,0,0,0-1.7-1.3,7,7,0,0,1-4.1-2.7c-.7-1.4-1-3.4-1.8-4.7,2.5.4,5.4,2.2,6.1,6.7a7.1,7.1,0,0,0,1.3,1.2,12,12,0,0,1-.5-3.3,16.4,16.4,0,0,1,.2-2.2c-1.1,0-2.1-.6-2.8-2.2s-1.6-4.3-2.2-4.8c3.9.3,6.7,2.1,5.5,6.9h0a17.9,17.9,0,0,0-.2,2.3,13.4,13.4,0,0,0,.5,3.5h.1a11.3,11.3,0,0,0,3.2,4.9,12,12,0,0,1-2.7,0c-1-.2-3.6-.7-4.5-1.4s-1.9-2.6-3.2-4.1c1.8.8,3.1.7,4.5,1.3" transform="translate(-1519.6 736.4)"/>
</svg>
